<!-- This Source Code Form is subject to the terms of the Mozilla Public
   - License, v. 2.0. If a copy of the MPL was not distributed with this
   - file, You can obtain one at http://mozilla.org/MPL/2.0/. -->
<svg width="50" height="58" xmlns="http://www.w3.org/2000/svg"><defs><linearGradient x1="71.971%" y1="11.845%" x2="26.855%" y2="90.324%" id="a"><stop stop-color="#FF980E" offset="0%"/><stop stop-color="#FF851B" offset="11%"/><stop stop-color="#FF3750" offset="57%"/><stop stop-color="#F92261" offset="80%"/><stop stop-color="#F5156C" offset="100%"/></linearGradient><linearGradient x1="71.573%" y1="-.991%" x2="34.706%" y2="86.287%" id="b"><stop stop-color="#FFF261" stop-opacity=".8" offset="0%"/><stop stop-color="#FFF261" stop-opacity=".68" offset="6%"/><stop stop-color="#FFF261" stop-opacity=".48" offset="19%"/><stop stop-color="#FFF261" stop-opacity=".31" offset="31%"/><stop stop-color="#FFF261" stop-opacity=".17" offset="42%"/><stop stop-color="#FFF261" stop-opacity=".08" offset="53%"/><stop stop-color="#FFF261" stop-opacity=".02" offset="63%"/><stop stop-color="#FFF261" stop-opacity="0" offset="72%"/></linearGradient><linearGradient x1="50.51%" y1="200.063%" x2="50.51%" y2="-34.412%" id="c"><stop stop-color="#0090ED" offset="0%"/><stop stop-color="#9059FF" offset="50%"/><stop stop-color="#B833E1" offset="81%"/></linearGradient><linearGradient x1="24.563%" y1="80.696%" x2="79.944%" y2="4.059%" id="d"><stop stop-color="#0090ED" offset="2%"/><stop stop-color="#9059FF" offset="49%"/><stop stop-color="#B833E1" offset="100%"/></linearGradient><linearGradient x1="68.874%" y1="81.415%" x2="32.528%" y2="18.585%" id="e"><stop stop-color="#592ACB" stop-opacity="0" offset="14%"/><stop stop-color="#542BC8" stop-opacity=".03" offset="33%"/><stop stop-color="#462FBF" stop-opacity=".11" offset="53%"/><stop stop-color="#2F35B1" stop-opacity=".25" offset="74%"/><stop stop-color="#0F3D9C" stop-opacity=".44" offset="95%"/><stop stop-color="#054096" stop-opacity=".5" offset="100%"/></linearGradient><linearGradient x1="62.189%" y1="16.96%" x2="36.167%" y2="93.672%" id="f"><stop stop-color="#722291" stop-opacity=".5" offset="0%"/><stop stop-color="#B833E1" stop-opacity="0" offset="50%"/></linearGradient><linearGradient x1="86.967%" y1="8.374%" x2="37.025%" y2="60.939%" id="g"><stop stop-color="#054096" stop-opacity=".5" offset="0%"/><stop stop-color="#0F3D9C" stop-opacity=".44" offset="3%"/><stop stop-color="#2F35B1" stop-opacity=".25" offset="17%"/><stop stop-color="#462FBF" stop-opacity=".11" offset="30%"/><stop stop-color="#542BC8" stop-opacity=".03" offset="43%"/><stop stop-color="#592ACB" stop-opacity="0" offset="56%"/></linearGradient></defs><g fill="none" fill-rule="evenodd"><path d="M43.537 35.343c.174 1.235.01 1.997-.49 2.286L23.825 48.727c-.749.432-1.745.113-2.225-.718L4.076 17.657c-.478-.828-.258-1.853.491-2.286L23.79 4.274c.751-.434 1.747-.11 2.225.717l17.523 30.352zM33.992 49.74l4.619-2.666-1.616-2.8-4.619 2.667 1.616 2.8zM2.84 11.798c-2.547 1.47-3.169 5.164-1.388 8.249l19.383 33.57c1.78 3.086 5.29 4.394 7.837 2.923L47.16 45.867c2.547-1.471 3.169-5.164 1.388-8.25L29.165 4.048c-1.78-3.085-5.29-4.394-7.837-2.923L2.84 11.798z" fill="#D7D7DB"/><g fill-rule="nonzero"><path d="M20.476 8.09A83.755 83.755 0 0013.348.95a4.136 4.136 0 00-5.273 0A83.756 83.756 0 00.947 8.094a4.157 4.157 0 000 5.282 83.755 83.755 0 007.131 7.142 3.977 3.977 0 002.635.947 3.993 3.993 0 002.646-.955 84.445 84.445 0 003.663-3.506 1.196 1.196 0 00-.091-1.64l-3.54-3.308a4.076 4.076 0 001.36-3.22 4.128 4.128 0 00-3.856-3.927 4.066 4.066 0 00-3.042 1.116 4.103 4.103 0 00.08 6.031l-1.28 1.162a1.037 1.037 0 00-.062 1.448c.376.42 1.018.46 1.444.092l1.417-1.288.037-.035c.384-.385.589-.913.565-1.457a1.97 1.97 0 00-.68-1.419 2.036 2.036 0 01-.598-2.252 2.03 2.03 0 013.813 0 2.036 2.036 0 01-.599 2.252 1.984 1.984 0 00-.701 1.428c-.021.54.183 1.065.565 1.448l.024.024 2.972 2.79c-.91.905-1.858 1.8-2.868 2.718a2.11 2.11 0 01-2.533 0 82.378 82.378 0 01-6.962-6.975 2.125 2.125 0 010-2.538 81.622 81.622 0 016.962-6.976 2.11 2.11 0 012.53 0 81.622 81.622 0 016.963 6.976 2.12 2.12 0 010 2.535c-.357.403-.713.805-1.071 1.173a1.035 1.035 0 00.06 1.46 1.03 1.03 0 001.458-.06c.353-.384.717-.786 1.07-1.2a4.157 4.157 0 00.017-5.271z" fill="url(#a)" transform="rotate(-30 45.49 -5.758)"/><path d="M20.476 8.09A83.755 83.755 0 0013.348.95a4.136 4.136 0 00-5.273 0A83.756 83.756 0 00.947 8.094a4.157 4.157 0 000 5.282 83.755 83.755 0 007.131 7.142 3.977 3.977 0 002.635.947 3.993 3.993 0 002.646-.955 84.445 84.445 0 003.663-3.506 1.196 1.196 0 00-.091-1.64l-3.54-3.308a4.076 4.076 0 001.36-3.22 4.128 4.128 0 00-3.856-3.927 4.066 4.066 0 00-3.042 1.116 4.103 4.103 0 00.08 6.031l-1.28 1.162a1.037 1.037 0 00-.062 1.448c.376.42 1.018.46 1.444.092l1.417-1.288.037-.035c.384-.385.589-.913.565-1.457a1.97 1.97 0 00-.68-1.419 2.036 2.036 0 01-.598-2.252 2.03 2.03 0 013.813 0 2.036 2.036 0 01-.599 2.252 1.984 1.984 0 00-.701 1.428c-.021.54.183 1.065.565 1.448l.024.024 2.972 2.79c-.91.905-1.858 1.8-2.868 2.718a2.11 2.11 0 01-2.533 0 82.378 82.378 0 01-6.962-6.975 2.125 2.125 0 010-2.538 81.622 81.622 0 016.962-6.976 2.11 2.11 0 012.53 0 81.622 81.622 0 016.963 6.976 2.12 2.12 0 010 2.535c-.357.403-.713.805-1.071 1.173a1.035 1.035 0 00.06 1.46 1.03 1.03 0 001.458-.06c.353-.384.717-.786 1.07-1.2a4.157 4.157 0 00.017-5.271z" fill="url(#b)" transform="rotate(-30 45.49 -5.758)"/><path d="M18.93 9.465a2.12 2.12 0 010 2.535c-.355.402-.711.805-1.07 1.172a1.035 1.035 0 00.533 1.71c.36.08.735-.037.985-.31.354-.383.718-.785 1.071-1.198 1.29-1.43-1.518-3.91-1.518-3.91z" fill="url(#c)" transform="rotate(-30 45.49 -5.758)"/><path d="M14.85 16.25c-.91.904-1.858 1.8-2.868 2.717a2.11 2.11 0 01-2.533 0 82.378 82.378 0 01-6.962-6.975 2.125 2.125 0 010-2.538l-.469.536a3.463 3.463 0 00.056 4.634 83.038 83.038 0 006.004 5.894 3.977 3.977 0 002.635.947 3.993 3.993 0 002.646-.955c.747-.676 1.577-1.457 2.321-2.176a.905.905 0 000-1.304l-.83-.78z" fill="url(#d)" transform="rotate(-30 45.49 -5.758)"/><path d="M2.085 14.632c.782.85 1.561 1.663 2.36 2.457l.318-.52c.268-.427.535-.845.822-1.264a91.046 91.046 0 01-3.09-3.3 2.125 2.125 0 010-2.538l-.469.537a3.463 3.463 0 00.048 4.62l.011.008z" fill="url(#e)" opacity=".9" transform="rotate(-30 45.49 -5.758)"/><path d="M18.93 9.465a2.12 2.12 0 010 2.535c-.355.402-.711.805-1.07 1.172a1.035 1.035 0 00.533 1.71c.36.08.735-.037.985-.31.354-.383.718-.785 1.071-1.198 1.29-1.43-1.518-3.91-1.518-3.91z" fill="url(#f)" transform="rotate(-30 45.49 -5.758)"/><path d="M15.67 17.03l-.82-.78a86.49 86.49 0 01-2.87 2.717c-.462.357-1.052.5-1.626.398v2.084c.118 0 .236.016.356.016a3.993 3.993 0 002.646-.955c.747-.676 1.577-1.457 2.321-2.176a.902.902 0 00-.008-1.304z" fill="url(#g)" opacity=".9" transform="rotate(-30 45.49 -5.758)"/></g></g></svg>
